[{
        "author": "<a href=\"https://github.com/TES3MP-TeamFOSS\">TES3MP-TeamFOSS</a>",
        "category": "tes3mp",
        "description": "An array of handy scripts for your TES3MP server.",
        "name": "TeamFOSS",
        "slug": "teamfoss-scripts",
        "status": "Live",
        "homepage": "https://github.com/TES3MP-TeamFOSS/Scripts/",
        "url": "https://github.com/TES3MP-TeamFOSS/Scripts.git",
        "compat": "PartialWorking",
        "usage_notes": "The main branch of code does not support the latest TES3MP version, however there is <a href='https://github.com/TES3MP-TeamFOSS/Scripts/tree/0.7.0-alpha-wip'>a WIP branch that supports the latest and greatest</a>."
    },
    {
        "author": "<a href=\"https://github.com/Boyos999\">Boyos999</a>",
        "category": "tes3mp",
        "description": "This script will add some starting gear to the player's inventory after finishing character creation based on the values of their skills.  Only gives armor and weapon for highest skills (marksman not included).",
        "name": "Starter Equipment Script",
        "slug": "Starter Equipment Script",
        "status": "Live",
        "homepage": "https://github.com/Boyos999/tes3mpScripts/tree/master/Starter%20Equipment",
        "url": "https://github.com/Boyos999/tes3mpScripts.git"
    },
    {
        "author": "<a href=\"https://github.com/Boyos999\">Boyos999</a>",
        "category": "tes3mp",
        "description": "Allows the player to select a location to spawn at when their character is first created.",
        "name": "Alternate Start Script",
        "slug": "Alternate Start Script",
        "status": "Live",
        "homepage": "https://github.com/Boyos999/tes3mpScripts/tree/master/Alternate%20Start",
        "url": "https://github.com/Boyos999/tes3mpScripts.git"
    },
    {
        "author": "<a href=\"https://github.com/Boyos999\">Boyos999</a>",
        "category": "tes3mp",
        "description": "This will allow players to write notes using <code>/write</code> followed by the text of the note.",
        "name": "Note Writing",
        "slug": "Note Writing",
        "status": "Live",
        "homepage": "https://github.com/Boyos999/tes3mpScripts/tree/master/Note%20Writing",
        "url": "https://github.com/Boyos999/tes3mpScripts.git"
    },
    {
        "author": "<a href=\"https://github.com/Boyos999\">Boyos999</a>",
        "category": "tes3mp",
        "description": "Limits the number of potions a player can use at once based on their alchemy skill, currently quickkeys bypass this sadly.",
        "name": "Potion Limiter",
        "slug": "Potion Limiter",
        "status": "Live",
        "homepage": "https://github.com/Boyos999/tes3mpScripts/tree/master/Potion%20Limiter",
        "url": "https://github.com/Boyos999/tes3mpScripts.git"
    },
    {
        "author": "<a href=\"https://github.com/Boyos999\">Boyos999</a>",
        "category": "tes3mp",
        "description": "Contains functions for add/remove lists of items/spells to players and send the required packets to players.",
        "name": "Player Packet Helper",
        "slug": "Player Packet Helper",
        "status": "Live",
        "homepage": "https://github.com/Boyos999/tes3mpScripts/tree/master/Player%20Packet%20Helper",
        "url": "https://github.com/Boyos999/tes3mpScripts.git"
    },
    {
        "author": "<a href=\"https://github.com/uramer\">urm</a>",
        "category": "tes3mp",
        "description": "This module does nothing by itself, but provides a simple API to handle configuration and data files. Is required for all of my moudles.",
        "name": "Data Manager",
        "slug": "Data Manager",
        "status": "Live",
        "homepage": "https://github.com/tes3mp-scripts/DataManager",
        "url": "https://github.com/tes3mp-scripts/DataManager.git",
        "usage_notes": "Has to be <code>require</code>d before any of the modules that use it."
    },
    {
        "author": "<a href=\"https://github.com/uramer\">urm</a>",
        "category": "tes3mp",
        "description": "A complete solution to create custom doors.",
        "name": "Door Framework",
        "slug": "Door Framework",
        "status": "Live",
        "homepage": "https://github.com/tes3mp-scripts/DoorFramework",
        "url": "https://github.com/tes3mp-scripts/DoorFramework.git",
        "usage_notes": "Requires <a href='/mods/data-manager/'>Data Manager</a>."
    },
    {
        "author": "<a href=\"https://github.com/uramer\">urm</a>",
        "category": "tes3mp",
        "description": "A set of simple tools to spawn random loot.",
        "name": "Drop Framework",
        "slug": "Drop Framework",
        "status": "Live",
        "homepage": "https://github.com/tes3mp-scripts/DropFramework",
        "url": "https://github.com/tes3mp-scripts/DropFramework.git",
        "usage_notes": "Requires <a href='/mods/data-manager/'>Data Manager</a>."
    },
    {
        "author": "<a href=\"https://github.com/uramer\">urm</a>",
        "category": "tes3mp",
        "description": "Gives full control over weather to the server, defined by configurable Markov chains per month (allowing seasons).",
        "name": "Weather Controller",
        "slug": "Weather Controller",
        "status": "Live",
        "homepage": "https://github.com/tes3mp-scripts/WeatherController",
        "url": "https://github.com/tes3mp-scripts/WeatherController.git",
        "usage_notes": "Requires <a href='/mods/data-manager/'>Data Manager</a>."
    },
    {
        "author": "<a href=\"https://github.com/uramer\">urm</a>",
        "category": "tes3mp",
        "description": "A collection of popular improvements to vanilla leveling mechanics. Fixed attribute modifiers, level cap, rescaled base health, \"natural\" progression - gain attributes by increasing skills.",
        "name": "Better Vanilla Leveling",
        "slug": "Better Vanilla Leveling",
        "status": "Live",
        "homepage": "https://github.com/tes3mp-scripts/BetterVanillaLeveling",
        "url": "https://github.com/tes3mp-scripts/BetterVanillaLeveling.git",
        "usage_notes": "Requires <a href='/mods/data-manager/'>Data Manager</a>."
    },
    {
        "author": "<a href=\"https://github.com/uramer\">urm</a>",
        "category": "tes3mp",
        "description": "<p style=\"margin-bottom: 0;\">This script only handles cells on the first visit, resetting if the cell file was not present on server startup.</p>\n<p style=\"margin-bottom: 0;\">That means, that only cell reset scripts that actually remove cell files will cause creatures to be re-duplicated.</p>\n<p style=\"margin-bottom: 0;\">One such script is my [urm's] own CellReset.</p>",
        "name": "Double Trouble",
        "slug": "Double Trouble",
        "status": "Live",
        "homepage": "https://github.com/tes3mp-scripts/DoubleTrouble",
        "url": "https://github.com/tes3mp-scripts/DoubleTrouble.git",
        "usage_notes": "Requires <a href='/mods/data-manager/'>Data Manager</a>."
    },
    {
        "author": "<a href=\"https://github.com/uramer\">urm</a>",
        "category": "tes3mp",
        "description": "Spawns all new characters in a designated lobby cell. Players can made immortal in that cell. Comes with an optional permadeath module.",
        "name": "Player Lobby",
        "slug": "Player Lobby",
        "status": "Live",
        "homepage": "https://github.com/tes3mp-scripts/PlayerLobby",
        "url": "https://github.com/tes3mp-scripts/PlayerLobby.git",
        "usage_notes": "Requires <a href='/mods/data-manager/'>Data Manager</a>."
    },
    {
        "author": "<a href=\"https://github.com/uramer\">urm</a>",
        "category": "tes3mp",
        "description": "Empties player's inventory on death and spawns a container with its contents, available for anyone to take.",
        "name": "Full Loot",
        "slug": "Full Loot",
        "status": "Live",
        "homepage": "https://github.com/tes3mp-scripts/FullLoot",
        "url": "https://github.com/tes3mp-scripts/FullLoot.git",
        "usage_notes": "Requires <a href='/mods/data-manager/'>Data Manager</a> and <a href='/mods/container-framework/'>Container Framework</a>."
    },
    {
        "author": "<a href=\"https://github.com/uramer\">urm</a>",
        "category": "tes3mp",
        "description": "Spawns a trail of invisible objects behind every player. Other players can see them using the Detect Key spell effect.",
        "name": "Foot Prints",
        "slug": "Foot Prints",
        "status": "Live",
        "homepage": "https://github.com/tes3mp-scripts/FootPrints",
        "url": "https://github.com/tes3mp-scripts/FootPrints.git",
        "usage_notes": "Requires <a href='/mods/data-manager/'>Data Manager</a>."
    },
    {
        "author": "<a href=\"https://github.com/JakobCh\">JakobCh</a>",
        "category": "tes3mp",
        "description": "When you're inside a cell you own you can crouch+activate a dropped item to set it's price.",
        "name": "jcMarketplace",
        "slug": "jcMarketplace",
        "status": "Live",
        "homepage": "https://github.com/JakobCh/tes3mp_scripts/tree/master/jcMarketplace",
        "url": "https://github.com/JakobCh/tes3mp_scripts.git",
        "usage_notes": "Requires kanaHousing."
    },
    {
        "author": "<a href=\"https://github.com/Atkana\">Atkana</a>",
        "category": "tes3mp",
        "description": "Collection of all my [Atkana's] scripts for tes3mp 0.7 (or, at least, 0.7-prerelease). The information for some scripts can be found here, however larger ones may have their own separate readme in their own folder. Unless otherwise stated, you can find installation instructions at the top of each file.",
        "name": "Atkana's Scripts for 0.7",
        "slug": "Atkana's Scripts for 0.7",
        "status": "Live",
        "homepage": "https://github.com/Atkana/tes3mp-scripts/tree/master/0.7",
        "url": "https://github.com/Atkana/tes3mp-scripts.git"
    },
    {
        "author": "<a href=\"https://github.com/Jerthebear\">Jerthebear</a>",
        "category": "tes3mp",
        "description": "Another collection of lua scripts.",
        "name": "Jerthebear's TES3MP Scripts",
        "slug": "Jerthebear's TES3MP Scripts",
        "status": "Live",
        "url": "https://github.com/Jerthebear/Tes3mp-Scripts.git"
    },
    {
        "author": "<a href=\"https://github.com/rickoff\">rickoff</a>",
        "category": "tes3mp",
        "description": "Script tes3mp for Ecarlate <a href=\"https://morrowindserveurfr.wixsite.com/ecarlates\">https://morrowindserveurfr.wixsite.com/ecarlates</a>",
        "name": "Tes3mp Ecarlate Scripts",
        "slug": "Tes3mp Ecarlate Scripts",
        "status": "Live",
        "url": "https://github.com/rickoff/Tes3mp-Ecarlate-Script.git"
    },
    {
        "author": "<a href=\"https://github.com/Texafornian\">Texafornian</a>",
        "category": "tes3mp",
        "description": "Custom scripts on the TES3MP 0.7.0 server \"The Cornerclub\".",
        "name": "ccSuite",
        "slug": "ccSuite",
        "status": "Live",
        "url": "https://github.com/Texafornian/ccSuite.git"
    },
    {
        "author": "<a href=\"https://github.com/SaintWish\">SaintWish</a>",
        "category": "tes3mp",
        "description": "The script loader makes it much easier and cleaner to install scripts and remove them. Also, it allows developers to easily test their scripts and develop them without having to modify \"core\" files IE: serverCore.lua. Currently this will only work with version 0.7.x and not anything below that, if I get enough request I can make it work with lower versions.",
        "name": "tes3mp_scriptloader",
        "slug": "tes3mp_scriptloader",
        "status": "Live",
        "url": "https://github.com/SaintWish/tes3mp_scriptloader.git",
        "compat": "PartialWorking",
        "usage_notes": "Note that this implements the same functionality as the new event hook system and will likely clash with anything that uses that."
    },
    {
        "author": "<a href=\"https://github.com/Schnibbsel\">Schnibbsel</a>",
        "category": "tes3mp",
        "description": "Those are a collection of short Lua Scripts. Use them like you want.",
        "name": "TES3MP-Pants",
        "slug": "TES3MP-Pants",
        "status": "Live",
        "url": "https://github.com/Schnibbsel/TES3MP-Pants.git"
    },
    {
        "author": "<a href=\"https://github.com/Skvysh\">Skvysh</a>",
        "category": "tes3mp",
        "description": "Custom server-side scripts for TES3MP version 0.7.x.",
        "name": "Skvysh's TES3MP Scripts",
        "slug": "Skvysh's TES3MP Scripts",
        "status": "Live",
        "url": "https://github.com/Skvysh/TES3MP-Scripts.git"
    },
    {
        "author": "<a href=\"https://github.com/Texafornian\">Texafornian</a>",
        "category": "tes3mp",
        "description": "\"Team Deathmatch\" for TES3MP v0.6.1.",
        "name": "Team Deathmatch for TES3MP v0.6.1",
        "slug": "Team Deathmatch for TES3MP v0.6.1",
        "status": "Live",
        "url": "https://github.com/Texafornian/mwTDM-0.6.1.git",
        "compat": "Unknown"
    },
    {
        "author": "<a href=\"https://github.com/testman42\">testman</a>",
        "category": "tes3mp",
        "description": "<p>Deathmatch and Team Deathmatch for TES3MP 0.7.0-alpha.</p>\n\n<p style=\"margin-bottom: 0;\">Lots of customizable settings are available; just open testDM.lua and look for <span>CONFIG/SETTINGS SECTION</span>.</p>",
        "name": "TES3MP Deathmatch",
        "slug": "TES3MP Deathmatch",
        "status": "Live",
        "url": "https://github.com/testman42/tes3mp-deathmatch.git",
        "compat": "FullyWorking",
        "usage_notes": "Consult the <a href='https://github.com/testman42/tes3mp-deathmatch/blob/master/README.md'>README</a> for install and usage instructions."
    },
    {
        "author": "<a href=\"https://github.com/Texafornian\">Texafornian</a>",
        "category": "tes3mp",
        "description": "A quick-and-dirty Python 3.4 script to parse information about players on a TES3MP server.",
        "name": "TES3MP Server Stats",
        "slug": "TES3MP Server Stats",
        "status": "Live",
        "url": "https://github.com/Texafornian/TES3MP-Server-Stats.git"
    },
    {
        "author": "<a href=\"https://github.com/NicholasAH\">NicholasAH</a>",
        "category": "tes3mp",
        "description": "This gives mods the ability to give players their own cells, where they can whitelist and unwhitelist it, and add whitelisted people. It was made afterplayer-ran stores would get robbed when players were offline.",
        "name": "TES3MP Player Cells",
        "slug": "TES3MP Player Cells",
        "status": "Live",
        "url": "https://github.com/NicholasAH/tes3mp-player-cells.git"
    },
    {
        "author": "<a href=\"https://github.com/rnate\">rnate</a>",
        "category": "tes3mp",
        "description": "Due to them relying on global player variables, none of the popular 'Graphic Herbalism' mods work in TES3MP. This transfers it to a server script, so it can run without issue.",
        "name": "TES3MP GraphicHerbalism",
        "slug": "TES3MP GraphicHerbalism",
        "status": "Live",
        "url": "https://github.com/rnate/TES3MP-GraphicHerbalism.git",
        "usage_notes": "<p style=\"margin-bottom: 0;\">This script no longer works with newer versions of TES3MP CoreScripts.  Please see <code>QuickHarvesting</code> in <a href=\"/mods/uramers-tes3mp-scripts/\">uramer's script repo</a> as an updated alternative.</p>"
    },
    {
        "author": "<a href=\"https://github.com/rnate\">rnate</a>",
        "category": "tes3mp",
        "description": "This script will log the time the player enters a cell, and then depending on the resetTime (default 1 hour of real time), run the console command 'RA'.",
        "name": "TES3MP npcReset",
        "slug": "TES3MP npcReset",
        "status": "Live",
        "url": "https://github.com/rnate/TES3MP-npcReset.git"
    },
    {
        "author": "<a href=\"https://github.com/nalal\">nalal</a>",
        "category": "tes3mp",
        "description": "Repository for Dawn of Resdayn's scripting.",
        "name": "Dawn of Resdayn's Scripts",
        "slug": "Dawn of Resdayn's Scripts",
        "status": "Live",
        "url": "https://github.com/nalal/DawnOfResdaynScriptRepo.git"
    },
    {
        "author": "<a href=\"https://github.com/Learwolf\">Learwolf</a>",
        "category": "tes3mp",
        "description": "Public scripts for TES3MP server owners.",
        "name": "Learwolf's Scripts",
        "slug": "Learwolf's Scripts",
        "status": "Live",
        "url": "https://github.com/Learwolf/tes3mp-Scripts.git"
    },
    {
        "author": "<a href=\"https://gitlab.com/rendeko\">rendeko (malic)</a>",
        "category": "tes3mp",
        "description": "Activating a player shows a per-character dialogue containing their appearance, age, biography, etc. Made for RP based on WoW addons.",
        "name": "jrpStatus",
        "slug": "jrpStatus",
        "status": "Live",
        "url": "https://gitlab.com/rendeko/tes3mp-scripts.git"
    },
    {
        "author": "Hristos N. Triantafillou",
        "category": "tes3mp",
        "description": "<p>Ensure that unique items stay unique!</p>\n\n<p>Unique items (based on an internal, appendable list) are now limited to one at a time. Any extras that happen to be found or spawned in will be zapped out of existence.</p>\n\n<p>Players that haven't logged in for a certain amount of time (30 days by default) will lose any unique items they are holding (when the server restarts).</p>",
        "name": "TES3MP UniqueItems",
        "slug": "TES3MP UniqueItems",
        "status": "Live",
        "url": "https://github.com/hristoast/TES3MP-UniqueItems.git",
        "usage_notes": "<p>Please consult <a href=\"https://github.com/hristoast/TES3MP-UniqueItems#usage\">the README</a> for installation and usage instructions.</p>"
    }

]
